Building DAG of jobs...
Using shell: /bin/bash
Provided cores: 1
Rules claiming more threads will be scaled down.
Job counts:
	count	jobs
	1	all
	1	heatmap
	2

[Sat Apr  6 16:51:12 2019]
Job 1: Creating a heatmap (results/gene_ex_heatmap.jpg) from data/gene_ex.csv.

[Sat Apr  6 16:51:13 2019]
Error in rule heatmap:
    jobid: 1
    output: results/gene_ex_heatmap.jpg

RuleException:
CalledProcessError in line 24 of /homes/jpvanderleeden/Desktop/dataprocessing/snakemake-test/WCO-4/WCO4:
Command 'set -euo pipefail;  Rscript heatmap.R data/gene_ex.csv results/gene_ex_heatmap.jpg' returned non-zero exit status 1
  File "/homes/jpvanderleeden/Desktop/dataprocessing/snakemake-test/WCO-4/WCO4", line 24, in __rule_heatmap
  File "/usr/lib/python3.5/concurrent/futures/thread.py", line 55, in run
Shutting down, this might take some time.
Exiting because a job execution failed. Look above for error message
Complete log: /homes/jpvanderleeden/Desktop/dataprocessing/snakemake-test/WCO-4/.snakemake/log/2019-04-06T165112.914526.snakemake.log
