9563996 reads; of these:
  9563996 (100.00%) were paired; of these:
    9560886 (99.97%) aligned concordantly 0 times
    949 (0.01%) aligned concordantly exactly 1 time
    2161 (0.02%) aligned concordantly >1 times
    ----
    9560886 pairs aligned concordantly 0 times; of these:
      29 (0.00%) aligned discordantly 1 time
    ----
    9560857 pairs aligned 0 times concordantly or discordantly; of these:
      19121714 mates make up the pairs; of these:
        19117150 (99.98%) aligned 0 times
        2938 (0.02%) aligned exactly 1 time
        1626 (0.01%) aligned >1 times
0.06% overall alignment rate
